<?xml version="1.0" encoding="UTF-8"?>
<svg width="7px" height="9px" viewBox="0 0 7 9" version="1.1" xmlns="http://www.w3.org/2000/svg" xmlns:xlink="http://www.w3.org/1999/xlink">
    <!-- Generator: Sketch 51.2 (57519) - http://www.bohemiancoding.com/sketch -->
    <title>Combined Shape Copy 16</title>
    <desc>Created with Sketch.</desc>
    <defs></defs>
    <g id="Page-1" stroke="none" stroke-width="1" fill="none" fill-rule="evenodd">
        <g id="CArds" transform="translate(-292.000000, -390.000000)" fill="#ADADAD" fill-rule="nonzero">
            <path d="M293.076923,391.168454 L293.076923,397.185017 L295.168925,395.335545 C295.36697,395.160459 295.651143,395.160459 295.849188,395.335545 L297.923077,397.169004 L297.923077,391.168454 L293.076923,391.168454 Z M299,390.850665 L299,398.398654 C299,398.890973 298.473172,399.162551 298.121407,398.851567 L295.509057,396.542071 L292.878593,398.86758 C292.526828,399.178565 292,398.906986 292,398.414667 L292,390.584227 C292,390.261567 292.241077,390 292.538462,390 L298.443314,390 C298.740698,390 298.981775,390.261567 298.981775,390.584227 L298.981775,390.699386 C298.993662,390.747633 299,390.798343 299,390.850665 Z" id="Combined-Shape-Copy-16"></path>
        </g>
    </g>
</svg>