<?xml version="1.0" encoding="UTF-8"?>
<svg width="200px" height="200px" viewBox="0 0 200 200" version="1.1" xmlns="http://www.w3.org/2000/svg" xmlns:xlink="http://www.w3.org/1999/xlink">
    <!-- Generator: Sketch 51.3 (57544) - http://www.bohemiancoding.com/sketch -->
    <title>events</title>
    <desc>Created with Sketch.</desc>
    <defs>
        <polygon id="path-1" points="0 106.790388 199.342636 106.790388 199.342636 -0.000310077519 0 -0.000310077519"></polygon>
    </defs>
    <g id="events" stroke="none" stroke-width="1" fill="none" fill-rule="evenodd">
        <rect fill="#FFFFFF" x="0" y="0" width="200" height="200"></rect>
        <g id="Group-20" transform="translate(0.000000, 47.000000)">
            <path d="M188.662791,3.55937984 L138.827132,3.55937984 C138.827132,7.4896124 135.639535,10.6787597 131.707752,10.6787597 L131.707752,96.1113178 C135.639535,96.1113178 138.827132,99.3004651 138.827132,103.230698 L188.662791,103.230698 C190.486047,103.230698 192.309302,102.536124 193.696899,101.145426 C195.089147,99.7562791 195.782171,97.9330233 195.782171,96.1113178 L195.782171,88.991938 C191.851938,88.991938 188.662791,85.8043411 188.662791,81.8725581 C188.662791,77.9423256 191.851938,74.7531783 195.782171,74.7531783 L195.782171,60.5144186 C191.851938,60.5144186 188.662791,57.3268217 188.662791,53.3965891 C188.662791,49.4632558 191.851938,46.2756589 195.782171,46.2756589 L195.782171,32.0368992 C191.851938,32.0368992 188.662791,28.8493023 188.662791,24.9175194 C188.662791,20.9857364 191.851938,17.7981395 195.782171,17.7981395 L195.782171,10.6787597 C195.782171,8.85705426 195.089147,7.03379845 193.696899,5.64620155 C192.309302,4.25395349 190.486047,3.55937984 188.662791,3.55937984" id="Fill-1" fill="#FF54AA"></path>
            <path d="M78.2945736,21.3586047 C78.2945736,25.2888372 75.1054264,28.4779845 71.1751938,28.4779845 C67.2418605,28.4779845 64.055814,25.2888372 64.055814,21.3586047 L28.4573643,21.3586047 L28.4573643,85.4330233 L64.055814,85.4330233 C64.055814,81.5012403 67.2418605,78.312093 71.1751938,78.312093 C75.1054264,78.312093 78.2945736,81.5012403 78.2945736,85.4330233 L113.891473,85.4330233 L113.891473,21.3586047 L78.2945736,21.3586047 Z" id="Fill-3" fill="#43D3E8"></path>
            <mask id="mask-2" fill="white">
                <use xlink:href="#path-1"></use>
            </mask>
            <g id="Clip-6"></g>
            <polygon id="Fill-5" fill="#242D3C" mask="url(#mask-2)" points="128.148837 28.4772093 135.268217 28.4772093 135.268217 21.3578295 128.148837 21.3578295"></polygon>
            <polygon id="Fill-7" fill="#242D3C" mask="url(#mask-2)" points="128.148837 42.715969 135.268217 42.715969 135.268217 35.5965891 128.148837 35.5965891"></polygon>
            <polygon id="Fill-8" fill="#242D3C" mask="url(#mask-2)" points="128.148837 56.9547287 135.268217 56.9547287 135.268217 49.8337984 128.148837 49.8337984"></polygon>
            <polygon id="Fill-9" fill="#242D3C" mask="url(#mask-2)" points="128.148837 71.1934884 135.268217 71.1934884 135.268217 64.0741085 128.148837 64.0741085"></polygon>
            <polygon id="Fill-10" fill="#242D3C" mask="url(#mask-2)" points="128.148837 85.4337984 135.268217 85.4337984 135.268217 78.3128682 128.148837 78.3128682"></polygon>
            <path d="M141.777054,99.6713178 L188.662326,99.6713178 C189.612713,99.6713178 190.507287,99.3023256 191.178605,98.627907 C191.853023,97.9565891 192.223566,97.0620155 192.223566,96.1116279 L192.223566,91.944186 C188.077829,90.4728682 185.104186,86.5147287 185.104186,81.8728682 C185.104186,77.2310078 188.077829,73.2728682 192.223566,71.8031008 L192.223566,63.4651163 C188.077829,61.9953488 185.104186,58.0372093 185.104186,53.3953488 C185.104186,48.7534884 188.077829,44.7937984 192.223566,43.324031 L192.223566,34.9875969 C188.077829,33.5178295 185.104186,29.5581395 185.104186,24.9178295 C185.104186,20.275969 188.077829,16.3162791 192.223566,14.848062 L192.223566,10.6790698 C192.223566,9.72713178 191.853023,8.83410853 191.180155,8.16434109 C190.507287,7.48992248 189.612713,7.11937984 188.662326,7.11937984 L141.777054,7.11937984 C140.308837,11.2635659 136.349147,14.2387597 131.707287,14.2387597 C127.068527,14.2387597 123.107287,11.2635659 121.63907,7.11937984 L10.6762791,7.11937984 C9.72744186,7.11937984 8.8344186,7.48992248 8.16,8.1627907 C7.48868217,8.83410853 7.11968992,9.72713178 7.11968992,10.6790698 L7.11968992,14.848062 C11.2607752,16.3162791 14.2375194,20.275969 14.2375194,24.9178295 C14.2375194,29.5581395 11.2607752,33.5178295 7.11968992,34.9875969 L7.11968992,43.324031 C11.2607752,44.7937984 14.2375194,48.7534884 14.2375194,53.3953488 C14.2375194,58.0372093 11.2607752,61.9953488 7.11968992,63.4651163 L7.11968992,71.8031008 C11.2607752,73.2728682 14.2375194,77.2310078 14.2375194,81.8728682 C14.2375194,86.5147287 11.2607752,90.4728682 7.11968992,91.944186 L7.11968992,96.1116279 C7.11968992,97.0620155 7.48868217,97.9565891 8.16,98.6263566 C8.8344186,99.3023256 9.72744186,99.6713178 10.6762791,99.6713178 L121.63907,99.6713178 C123.107287,95.5271318 127.068527,92.551938 131.707287,92.551938 C136.349147,92.551938 140.308837,95.5271318 141.777054,99.6713178 M188.662326,106.790698 L138.828217,106.790698 C136.860775,106.790698 135.268527,105.196899 135.268527,103.231008 C135.268527,101.266667 133.670078,99.6713178 131.707287,99.6713178 C129.744496,99.6713178 128.149147,101.266667 128.149147,103.231008 C128.149147,105.196899 126.555349,106.790698 124.587907,106.790698 L10.6762791,106.790698 C7.82666667,106.790698 5.14449612,105.67907 3.12744186,103.662016 C1.11193798,101.646512 0.000310077519,98.9658915 0.000310077519,96.1116279 L0.000310077519,88.9922481 C0.000310077519,87.0263566 1.59255814,85.4325581 3.55844961,85.4325581 C5.52124031,85.4325581 7.11968992,83.8356589 7.11968992,81.8728682 C7.11968992,79.9100775 5.52124031,78.3131783 3.55844961,78.3131783 C1.59255814,78.3131783 0.000310077519,76.7193798 0.000310077519,74.7534884 L0.000310077519,60.5147287 C0.000310077519,58.5488372 1.59255814,56.9550388 3.55844961,56.9550388 C5.52124031,56.9550388 7.11968992,55.3581395 7.11968992,53.3953488 C7.11968992,51.4325581 5.52124031,49.8341085 3.55844961,49.8341085 C1.59255814,49.8341085 0.000310077519,48.2418605 0.000310077519,46.275969 L0.000310077519,32.0372093 C0.000310077519,30.0697674 1.59255814,28.4775194 3.55844961,28.4775194 C5.52124031,28.4775194 7.11968992,26.8821705 7.11968992,24.9178295 C7.11968992,22.9550388 5.52124031,21.3581395 3.55844961,21.3581395 C1.59255814,21.3581395 0.000310077519,19.7643411 0.000310077519,17.7968992 L0.000310077519,10.6790698 C0.000310077519,7.82635659 1.11193798,5.14263566 3.12744186,3.12713178 C5.14449612,1.11162791 7.82666667,0 10.6762791,0 L124.587907,0 C126.555349,0 128.149147,1.59224806 128.149147,3.55968992 C128.149147,5.52248062 129.744496,7.11937984 131.707287,7.11937984 C133.670078,7.11937984 135.268527,5.52248062 135.268527,3.55968992 C135.268527,1.59224806 136.860775,0 138.828217,0 L188.662326,0 C191.51814,0 194.19876,1.11317829 196.214264,3.12713178 C198.231318,5.14263566 199.342946,7.82635659 199.342946,10.6790698 L199.342946,17.7968992 C199.342946,19.7643411 197.750698,21.3581395 195.781705,21.3581395 C193.818915,21.3581395 192.223566,22.9550388 192.223566,24.9178295 C192.223566,26.8821705 193.818915,28.4775194 195.781705,28.4775194 C197.750698,28.4775194 199.342946,30.0697674 199.342946,32.0372093 L199.342946,46.275969 C199.342946,48.2418605 197.750698,49.8341085 195.781705,49.8341085 C193.818915,49.8341085 192.223566,51.4325581 192.223566,53.3953488 C192.223566,55.3581395 193.818915,56.9550388 195.781705,56.9550388 C197.750698,56.9550388 199.342946,58.5488372 199.342946,60.5147287 L199.342946,74.7534884 C199.342946,76.7193798 197.750698,78.3131783 195.781705,78.3131783 C193.818915,78.3131783 192.223566,79.9100775 192.223566,81.8728682 C192.223566,83.8356589 193.818915,85.4325581 195.781705,85.4325581 C197.750698,85.4325581 199.342946,87.0263566 199.342946,88.9922481 L199.342946,96.1116279 C199.342946,98.9658915 198.231318,101.646512 196.212713,103.663566 C194.19876,105.67907 191.51814,106.790698 188.662326,106.790698" id="Fill-11" fill="#242D3C" mask="url(#mask-2)"></path>
            <polygon id="Fill-12" fill="#FFFFFF" mask="url(#mask-2)" points="46.136124 43.3531783 49.3996899 49.964031 56.695814 51.0244961 51.4167442 56.1717829 52.6617054 63.4368992 46.136124 60.0058915 39.612093 63.4368992 40.8586047 56.1717829 35.5764341 51.0244961 42.8741085 49.964031"></polygon>
            <polygon id="Fill-13" fill="#FFFFFF" mask="url(#mask-2)" points="71.1755039 43.3531783 74.4375194 49.964031 81.7336434 51.0244961 76.4545736 56.1717829 77.6995349 63.4368992 71.1755039 60.0058915 64.6499225 63.4368992 65.8948837 56.1717829 60.615814 51.0244961 67.911938 49.964031"></polygon>
            <polygon id="Fill-14" fill="#FFFFFF" mask="url(#mask-2)" points="96.2147287 43.3531783 99.4767442 49.964031 106.772868 51.0244961 101.492248 56.1717829 102.737209 63.4368992 96.2147287 60.0058915 89.6891473 63.4368992 90.9341085 56.1717829 85.6534884 51.0244961 92.9496124 49.964031"></polygon>
            <polygon id="Fill-15" fill="#FFFFFF" mask="url(#mask-2)" points="149.516279 28.4787597 170.875969 28.4787597 170.875969 21.3578295 149.516279 21.3578295"></polygon>
            <polygon id="Fill-16" fill="#FFFFFF" mask="url(#mask-2)" points="149.516279 42.7175194 170.875969 42.7175194 170.875969 35.5981395 149.516279 35.5981395"></polygon>
            <polygon id="Fill-17" fill="#FFFFFF" mask="url(#mask-2)" points="149.516279 56.9562791 170.875969 56.9562791 170.875969 49.8368992 149.516279 49.8368992"></polygon>
            <polygon id="Fill-18" fill="#FFFFFF" mask="url(#mask-2)" points="149.516279 71.1950388 170.875969 71.1950388 170.875969 64.0756589 149.516279 64.0756589"></polygon>
            <polygon id="Fill-19" fill="#FFFFFF" mask="url(#mask-2)" points="149.516279 85.4337984 170.875969 85.4337984 170.875969 78.3144186 149.516279 78.3144186"></polygon>
        </g>
    </g>
</svg>