<?xml version="1.0" encoding="UTF-8"?>
<svg width="135px" height="60px" viewBox="0 0 135 60" version="1.1" xmlns="http://www.w3.org/2000/svg" xmlns:xlink="http://www.w3.org/1999/xlink">
    <!-- Generator: Sketch 48.2 (47327) - http://www.bohemiancoding.com/sketch -->
    <title>Fill-1</title>
    <desc>Created with Sketch.</desc>
    <defs>
        <linearGradient x1="100%" y1="100%" x2="0%" y2="0%" id="linearGradient-1">
            <stop stop-color="#00C4FF" offset="0%"></stop>
            <stop stop-color="#39ADF8" offset="24.2526307%"></stop>
            <stop stop-color="#479CF3" offset="44.0368268%"></stop>
            <stop stop-color="#4B97F1" offset="50.1036352%"></stop>
            <stop stop-color="#5580E9" offset="73.8799426%"></stop>
            <stop stop-color="#5A69E2" offset="100%"></stop>
        </linearGradient>
    </defs>
    <g id="Desktop" stroke="none" stroke-width="1" fill="none" fill-rule="evenodd" transform="translate(-733.000000, -4128.000000)">
        <g id="MEET-JANE" transform="translate(0.000000, 2997.000000)" fill="url(#linearGradient-1)" fill-rule="nonzero">
            <g id="HOW-JANE-WORKS" transform="translate(0.000000, 405.000000)">
                <g id="CUI" transform="translate(613.000000, 508.000000)">
                    <path d="M152.224819,254.35314 C152.140398,254.804176 152.012685,255.485067 151.568936,256.781795 C150.519091,259.852309 148.031933,262.007741 146.228798,262.476124 C144.332584,262.96836 140.830216,262.569367 138.88205,261.899319 C137.113549,261.292155 135.901358,260.541874 134.702154,259.301525 C133.182585,257.733741 131.593748,255.489404 130.554727,253.4489 C129.173695,250.736179 128.158484,248.242471 127.056687,244.838017 C127.030713,244.766459 124.725383,237.653969 126.372665,235.67635 C126.658396,235.333736 127.348912,235.231819 128.102204,235.231819 C128.595738,235.231819 129.113084,235.27302 129.565492,235.320725 C133.894748,235.769593 138.427479,237.042468 142.00128,238.814085 L142.384419,239.00274 C145.155143,240.373195 148.951901,242.248897 151.187962,245.36278 C152.683719,247.440147 153.006249,250.194069 152.235642,254.290256 L152.224819,254.35314 Z M201.833765,261.550199 C201.796966,261.780054 201.768826,261.973045 201.749344,262.122668 L201.749344,262.124836 C201.74718,262.148689 201.433309,264.568671 200.013312,268.04902 C198.621457,271.067491 196.506615,272.507337 195.660245,272.988731 C194.285707,273.771538 191.534464,274.088131 188.467186,273.812739 C186.174845,273.611073 181.620468,272.828266 176.905908,269.874848 C175.773807,269.167936 175.03134,268.623657 174.122197,267.619668 C173.466313,266.897577 172.371012,265.344973 172.141561,264.932969 C172.163208,264.651071 171.840678,263.983191 170.812479,261.947024 C170.271323,260.875814 169.658733,259.661486 169.11974,258.499201 C168.01578,256.122589 167.253832,254.123286 167.048191,253.565996 L166.970265,253.353489 C166.781943,252.828726 166.610937,252.364679 166.325206,252.271436 C166.188834,251.922317 165.911761,250.595231 166.433437,249.326692 C166.924808,248.131881 167.968159,247.35341 169.537513,247.015133 C182.430039,244.239527 196.097501,248.678328 196.225213,248.723865 C196.33128,248.765066 196.443841,248.801929 196.560731,248.845298 C197.640881,249.220438 199.275174,249.786402 201.25148,253.208203 C202.719098,255.74528 202.09785,259.815446 201.833765,261.550199 Z M254.295691,242.836545 C254.245905,242.762818 254.193954,242.693428 254.148496,242.626206 C253.336761,241.407542 252.03149,239.516661 250.440489,237.41544 C250.128782,237.005605 249.905825,236.769245 249.570308,236.409283 C249.399302,236.229303 249.197993,236.012458 248.938236,235.726224 C247.018212,233.607656 244.474774,234.516233 244.446634,234.524907 C244.163067,234.633329 216.035889,245.317243 213.161263,246.299547 C212.310564,246.590118 210.03554,247.464 209.938133,247.503032 C209.754139,247.572423 209.587463,247.652655 209.431609,247.726382 C208.961885,247.956237 208.715117,248.04948 208.373107,247.897689 C207.695578,247.598444 207.080824,247.292693 206.42927,246.971764 C204.381532,245.956933 202.262362,244.909576 198.062983,243.944619 C193.995646,243.014358 189.776787,242.459236 185.163964,242.251066 C176.83664,241.873757 170.838455,242.791008 168.825352,243.322276 C166.985418,243.812344 165.097861,244.345781 163.814238,244.929092 C163.197318,245.05703 161.978633,245.25219 161.582506,245.291222 C161.106288,245.336759 159.519615,245.16762 159.108335,245.046188 C159.039068,245.026672 158.974129,245.011493 158.907026,244.998482 C158.549862,244.91825 158.058491,244.814164 156.138466,243.376487 C152.653415,240.776525 148.194281,237.961888 143.577129,235.453 C140.024974,233.520919 137.048611,232.497414 135.195689,232.117937 C137.929614,231.042389 142.507803,229.253425 147.523246,227.349533 C154.692495,224.630307 156.779195,223.938574 162.591222,222.16262 C164.734204,221.509919 166.931302,221.384149 168.617547,221.822174 C170.262664,222.247189 171.602569,223.112397 172.580981,223.743414 C173.775856,224.511042 174.604908,225.105195 174.661189,225.146396 C174.730456,225.200607 183.570798,231.508604 184.973476,232.304423 C185.464848,232.58632 185.921584,232.651373 186.330698,232.503919 C186.912983,232.295749 187.213867,231.721112 187.341579,231.402351 L187.495268,231.022873 C187.744201,230.417878 188.226912,229.244751 188.605722,228.284131 C189.088434,227.048119 188.268041,226.237122 187.707402,225.950888 L187.51908,225.857645 C187.122953,225.662485 186.2939,225.248313 186.073108,225.148564 C185.715945,224.990268 180.321691,222.479212 180.087911,222.346937 C180.01215,222.303568 179.821662,222.223336 179.284834,221.991313 C178.579166,221.687731 177.418925,221.188989 175.897192,220.495088 C175.676398,220.395339 175.449113,220.289086 175.215334,220.180664 C174.797561,219.985504 174.355976,219.779502 173.888416,219.577837 C173.652472,219.473752 173.416527,219.371835 173.167595,219.276423 C173.072352,219.23956 172.888358,219.150654 172.888358,219.150654 C168.667333,216.941011 162.582564,218.558669 161.898541,218.75166 C161.796804,218.782019 161.197201,218.948989 160.413607,219.168001 C158.740349,219.638553 156.231545,220.343297 155.924168,220.434371 C155.699047,220.503762 153.073353,221.358128 150.291806,222.262368 C147.514587,223.166608 144.646455,224.101207 144.419169,224.168428 C144.029536,224.287693 128.96589,229.411721 124.35956,230.981673 C124.050019,231.085758 123.679868,231.051063 123.407125,231.033716 C123.205814,231.0142 123.073771,231.005526 123.021821,231.031547 C122.104019,231.137801 121.42649,231.473909 121.171064,231.604016 L121.056338,231.660395 C120.807406,231.825197 120,232.408508 120,232.961461 C120,233.2542 120.077926,234.364443 120.160182,235.476853 C120.183993,235.819467 120.201311,236.068838 120.203475,236.105701 C120.203475,236.253156 120.309541,236.658654 120.476219,236.953562 C120.508688,237.009942 120.584449,237.127038 120.690517,237.283165 C121.026034,237.786244 121.651612,238.729516 121.870238,239.373543 C122.71228,243.153138 124.123616,249.480651 127.195223,255.231359 C128.169307,257.057188 129.364181,258.768088 130.749543,260.318524 C131.87515,261.578389 133.059202,262.625747 134.271393,263.432407 C135.225994,264.061255 136.340778,264.709619 138.0162,265.217035 C139.379915,265.62687 140.999058,266.060559 142.672314,266.15597 C144.486273,266.260055 146.148708,266.054053 147.601173,265.550975 C149.878362,264.772504 151.77674,263.265437 153.231371,261.092658 C155.196852,258.62714 156.396057,253.776335 156.935049,251.104814 L156.963189,250.959529 C157.010812,250.779548 157.311694,249.88615 158.755501,249.88615 L158.768489,249.88615 L158.898367,249.88615 C159.552084,249.842781 160.634399,249.862297 161.658267,252.399374 C161.779486,252.694282 162.452686,254.301098 163.067441,255.769133 C163.496037,256.792638 163.898658,257.748921 164.063169,258.145745 C165.385758,261.786559 169.336204,270.694519 177.392949,274.788537 C177.531485,274.857928 177.646211,274.907802 177.747948,274.955508 L177.910295,275.029234 C181.592328,276.974327 185.642347,277.670397 188.391424,277.913262 C189.05813,277.97181 189.737823,278 190.413187,278 C193.582202,278 196.491463,277.154308 197.967739,276.312952 C200.205965,275.042245 202.413885,272.16906 203.727814,268.81448 C204.652111,266.457383 205.266866,263.870432 205.556925,261.136027 C205.617534,260.704507 205.665157,260.288166 205.714943,259.897847 C205.769059,259.438137 205.821009,259.013122 205.879455,258.64015 C205.992016,257.948417 206.063449,257.33258 206.121893,256.827333 C206.193326,256.228843 206.258265,255.667216 206.310215,255.571805 C206.411953,255.478562 206.994238,255.240033 207.461798,255.04921 C207.782162,254.919104 208.124175,254.778155 208.444539,254.637206 C208.676154,254.533121 208.974872,254.390004 208.974872,254.390004 L209.061458,254.346635 L209.122067,254.21436 C209.641579,253.958484 210.195724,253.696103 210.485783,253.563828 C212.511875,252.618387 242.892431,239.657609 244.431481,239.026593 C245.673977,238.521346 245.901264,238.421597 246.99873,241.028065 C247.137265,241.355499 247.195711,241.637397 247.243333,241.986516 C247.308272,242.450563 247.392692,242.986168 247.529064,243.810176 C247.786655,245.403981 248.035587,246.427485 248.544275,246.941406 C248.689305,247.08886 248.85598,247.260167 249.035645,247.453158 C249.488052,247.930215 250.04869,248.524368 250.72189,249.122859 C251.444875,249.76038 251.966551,250.016256 252.464416,249.970719 C252.769629,249.936024 253.031548,249.773391 253.239353,249.484988 C253.646303,248.927699 254.609562,246.78311 254.962397,244.950776 C255.139896,244.02702 254.65069,243.339624 254.295691,242.836545 Z" id="Fill-1"></path>
                </g>
            </g>
        </g>
    </g>
</svg>