<?xml version="1.0" encoding="UTF-8"?>
<svg width="528px" height="155px" viewBox="0 0 528 155" version="1.1" xmlns="http://www.w3.org/2000/svg" xmlns:xlink="http://www.w3.org/1999/xlink">
    <!-- Generator: Sketch 51.2 (57519) - http://www.bohemiancoding.com/sketch -->
    <title>Witsy. ai</title>
    <desc>Created with Sketch.</desc>
    <defs></defs>
    <g id="Page-1" stroke="none" stroke-width="1" fill="none" fill-rule="evenodd">
        <path d="M19.4,0.04 C23.8800224,11.8800592 27.2399888,20.7866368 29.48,26.76 C33.8533552,38.0667232 37.2133216,47.0799664 39.56,53.8 C43.4000192,64.5733872 46.4399888,73.6399632 48.68,81 C51.7733488,69.266608 56.253304,55.666744 62.12,40.2 C67.2400256,26.8666 72.4133072,13.4800672 77.64,0.04 L91.08,0.04 L114.12,58.92 C115.933342,63.6133568 117.266662,67.1333216 118.12,69.48 C119.613341,73.4266864 120.679997,76.999984 121.32,80.2 C123.666678,72.4132944 126.54665,63.6133824 129.96,53.8 C133.37335,43.9866176 136.679984,34.7867096 139.88,26.2 C143.080016,17.6132904 146.333317,8.8933776 149.64,0.04 L167.4,0.04 L124.52,113 L119.24,113 C115.506648,104.25329 111.400022,94.4400544 106.92,83.56 C100.946637,69.159928 96.9466768,59.29336 94.92,53.96 C91.6133168,45.3199568 88.093352,35.2933904 84.36,23.88 C81.5866528,32.5200432 78.1733536,42.4932768 74.12,53.8 C71.8799888,60.0933648 68.1466928,69.9599328 62.92,83.4 C59.719984,91.7200416 55.8800224,101.58661 51.4,113 L46.12,113 L0.84,0.04 L19.4,0.04 Z M176.2,39.56 L191.4,39.56 L191.4,113 L176.2,113 L176.2,39.56 Z M184.04,13.48 C186.600013,13.48 188.706658,14.413324 190.36,16.28 C192.013342,18.146676 192.84,20.3599872 192.84,22.92 C192.84,25.6933472 191.88001,27.879992 189.96,29.48 C188.03999,31.080008 185.693347,31.88 182.92,31.88 C180.466654,31.88 178.413342,31.0000088 176.76,29.24 C175.106658,27.4799912 174.28,25.3200128 174.28,22.76 C174.28,20.09332 175.213324,17.8800088 177.08,16.12 C178.946676,14.3599912 181.266653,13.48 184.04,13.48 Z M233.56,20.52 L233.56,39.56 L254.04,39.56 L254.04,52.04 L233.4,52.2 C233.4,56.5733552 233.293334,63.7999496 233.08,73.88 C232.866666,83.9600504 232.76,89.3733296 232.76,90.12 C232.76,92.8933472 233.479993,95.1866576 234.92,97 C236.360007,98.8133424 238.466653,99.72 241.24,99.72 C243.90668,99.72 247.159981,98.8666752 251,97.16 C253.986682,95.8799936 256.973318,94.2266768 259.96,92.2 L259.96,108.36 C254.199971,110.813346 250.626674,112.306664 249.24,112.84 C245.293314,114.226674 241.506685,114.92 237.88,114.92 C230.733298,114.92 225.400018,112.200027 221.88,106.76 C218.893318,102.17331 217.4,96.0933712 217.4,88.52 C217.4,84.3599792 217.506666,77.4000488 217.72,67.64 C217.933334,57.8799512 218.04,52.6800032 218.04,52.04 L209.08,52.04 L233.56,20.52 Z M270.92,91.56 C275.186688,94.4400144 278.866651,96.5733264 281.96,97.96 C286.54669,100.093344 290.706648,101.16 294.44,101.16 C297.000013,101.16 299.079992,100.680005 300.68,99.72 C302.280008,98.7599952 303.08,97.0533456 303.08,94.6 C303.08,91.2933168 297.853386,86.440032 287.4,80.04 C276.946614,73.639968 271.72,66.44004 271.72,58.44 C271.72,52.039968 273.773313,47.0000184 277.88,43.32 C281.986687,39.6399816 287.239968,37.8 293.64,37.8 C297.160018,37.8 300.679982,38.3066616 304.2,39.32 C307.720018,40.3333384 311.133317,41.7999904 314.44,43.72 L314.6,59.56 C312.039987,57.5333232 308.733354,55.6933416 304.68,54.04 C300.626646,52.3866584 297.106682,51.56 294.12,51.56 C292.19999,51.56 290.520007,52.0399952 289.08,53 C287.639993,53.9600048 286.92,55.3999904 286.92,57.32 C286.92,60.7333504 292.173281,65.6133016 302.68,71.96 C313.186719,78.3066984 318.44,85.47996 318.44,93.48 C318.44,99.880032 316.280022,105.07998 311.96,109.08 C307.639978,113.08002 302.226699,115.08 295.72,115.08 C291.453312,115.08 287.32002,114.466673 283.32,113.24 C279.31998,112.013327 275.186688,110.226678 270.92,107.88 L270.92,91.56 Z M340.64,39.56 C348.960042,57.3734224 356.266635,73.5865936 362.56,88.2 L383.68,39.56 L400.48,39.56 L348.96,154.28 L332.16,154.28 L354.4,104.36 L323.84,39.56 L340.64,39.56 Z M402.56,91.24 C406.080017,91.24 409.039988,92.1999904 411.44,94.12 C413.840012,96.0400096 415.04,98.7066496 415.04,102.12 C415.04,105.426683 414.026677,108.306654 412,110.76 C409.973323,113.213346 407.360016,114.44 404.16,114.44 C400.639982,114.44 397.680012,113.346678 395.28,111.16 C392.879988,108.973322 391.68,106.066685 391.68,102.44 C391.68,99.5599856 392.773322,96.9733448 394.96,94.68 C397.146677,92.3866552 399.679985,91.24 402.56,91.24 Z M472.8,66.28 C472.8,61.9066448 472.000008,58.4933456 470.4,56.04 C468.373323,53.0533184 465.280021,51.56 461.12,51.56 C457.599982,51.56 453.546689,52.7866544 448.96,55.24 C445.439982,57.0533424 441.866685,59.5066512 438.24,62.6 L438.4,47.4 C442.026685,44.5199856 446.13331,42.2000088 450.72,40.44 C455.306689,38.6799912 459.786645,37.8 464.16,37.8 C473.333379,37.8 479.786648,41.2132992 483.52,48.04 C486.293347,53.1600256 487.68,60.7332832 487.68,70.76 C487.68,73.1066784 487.573334,76.9733064 487.36,82.36 C487.146665,87.7466936 487.04,90.5466656 487.04,90.76 C487.04,93.0000112 487.199998,95.0799904 487.52,97 C487.840001,98.9200096 488.693326,100.039998 490.08,100.36 L497.6,97.8 L497.6,108.68 C494.399984,110.60001 491.413347,112.119994 488.64,113.24 C485.866653,114.360006 482.986681,114.92 480,114.92 C478.613326,114.92 477.25334,114.306673 475.92,113.08 C474.58666,111.853327 473.600003,110.546674 472.96,109.16 C469.653317,110.866675 466.933344,112.146662 464.8,113 C461.599984,114.280006 458.66668,114.92 456,114.92 C449.493301,114.92 444.426685,113.373349 440.8,110.28 C436.853313,106.86665 434.88,101.906699 434.88,95.4 C434.88,88.466632 439.626619,82.4933584 449.12,77.48 C454.346693,74.7066528 462.239947,71.8266816 472.8,68.84 L472.8,66.28 Z M472.8,77.96 C466.826637,79.4533408 462.13335,81.1599904 458.72,83.08 C453.066638,86.280016 450.24,90.0666448 450.24,94.44 C450.24,96.7866784 451.146657,98.8666576 452.96,100.68 C454.773342,102.493342 456.906654,103.4 459.36,103.4 C461.493344,103.4 463.786654,102.866672 466.24,101.8 C469.226681,100.306659 471.413326,99.2400032 472.8,98.6 L472.8,77.96 Z M510.68,39.56 L525.88,39.56 L525.88,113 L510.68,113 L510.68,39.56 Z M518.52,13.48 C521.080013,13.48 523.186658,14.413324 524.84,16.28 C526.493341,18.146676 527.32,20.3599872 527.32,22.92 C527.32,25.6933472 526.360009,27.879992 524.44,29.48 C522.51999,31.080008 520.173347,31.88 517.4,31.88 C514.946654,31.88 512.893341,31.0000088 511.24,29.24 C509.586658,27.4799912 508.76,25.3200128 508.76,22.76 C508.76,20.09332 509.693324,17.8800088 511.56,16.12 C513.426676,14.3599912 515.746653,13.48 518.52,13.48 Z" id="Witsy.-ai" fill="#FFFFFF"></path>
    </g>
</svg>