<?xml version="1.0" encoding="UTF-8"?>
<svg width="96px" height="98px" viewBox="0 0 96 98" version="1.1" xmlns="http://www.w3.org/2000/svg" xmlns:xlink="http://www.w3.org/1999/xlink">
    <!-- Generator: Sketch 48.2 (47327) - http://www.bohemiancoding.com/sketch -->
    <title>tribal knowledge icon</title>
    <desc>Created with Sketch.</desc>
    <defs></defs>
    <g id="Desktop" stroke="none" stroke-width="1" fill="none" fill-rule="evenodd" transform="translate(-1201.000000, -1963.000000)">
        <g id="VILLAIN" transform="translate(0.000000, 748.000000)" fill-rule="nonzero">
            <g id="3-Sources" transform="translate(218.000000, 1215.000000)">
                <g id="tribal-knowledge-icon" transform="translate(983.000000, 0.000000)">
                    <path d="M47.128186,63.1298182 C47.0496982,62.2771959 46.8142326,61.4941091 46.5874828,60.741625 C46.4697488,60.3414064 46.3476614,59.9368445 46.2560819,59.5279841 C46.0118958,58.436097 46.216838,57.292025 46.4348651,56.0826159 C46.6267312,55.0211868 46.8229507,53.9249455 46.7401005,52.7590795 C46.6746932,51.8238032 46.5133619,50.9363909 46.3520149,50.0837909 C46.0816633,48.6091136 45.8243944,47.2214114 46.1121935,45.76845 C46.6049302,43.2671114 46.6005656,40.7178864 46.6005656,38.2557477 C46.5962054,36.6156955 46.5962054,34.9191818 46.7444651,33.2835841 C46.8011509,32.6919648 46.9276019,32.0873159 47.0671367,31.4478659 C47.3767256,30.0079341 47.7299274,28.3766795 47.1630675,26.6888523 C46.6136461,25.0488 45.977021,24.0787114 45.1528722,23.6350386 C44.2502601,23.1478227 43.3345652,23.4566786 42.7327792,23.6654899 C42.5278415,23.7350922 42.3010917,23.813392 42.1746396,23.8264438 C41.734234,23.8612449 41.3810322,23.8481942 41.0714433,23.8394945 C40.1819029,23.8003435 39.2661968,23.7742421 37.9319085,24.7399697 C37.4435364,25.0923354 36.9464461,25.4316381 36.4493782,25.770952 C35.5598378,26.3799774 34.6441317,27.0064202 33.7720945,27.7067861 C32.2154433,28.9639702 30.9726899,30.5387633 29.7692294,32.0568724 L29.6384127,32.2265238 C28.561382,33.5838238 27.9857615,34.867067 27.3797336,36.2287102 C27.2227624,36.5767215 27.0614154,36.9377847 26.8869968,37.3118997 C26.5643252,37.9948706 26.171875,38.5951429 25.7925187,39.1737883 C24.959674,40.444002 24.0963327,41.762102 24.0090396,43.8414838 C23.9392722,45.4466793 23.8695047,46.5995156 23.4814192,47.8653861 L23.4116517,48.0915879 C22.9581633,49.5749515 22.4392722,51.258547 22.8753131,53.0159765 C23.0061299,53.5466911 23.1936313,54.0208552 23.3724033,54.4863106 C23.642755,55.1823333 23.8782117,55.7870379 23.8738582,56.4004288 C23.8607766,57.8055038 23.9741481,59.2976652 24.8854861,60.7157697 C25.3171736,61.3856888 25.8404294,61.9250674 26.3506024,62.4514833 C26.5381038,62.6428952 26.7256052,62.8386502 26.9043773,63.0344052 C27.2314136,63.3954683 27.4668815,63.8957361 27.7197857,64.4264506 C28.1514731,65.344332 28.6441987,66.3883438 29.7691624,67.0452779 C31.2909857,67.9370556 32.7211624,68.8766529 34.0162694,69.8423983 L34.5613261,70.2556577 C35.3941708,70.8864324 36.2531587,71.543244 37.2211959,72.0740031 C39.0395029,73.0701843 40.6790936,73.0788818 42.414461,73.0919336 L42.4493447,73.0919336 C43.2342229,73.0919336 43.875168,72.952729 44.4115401,72.6656224 C47.2589447,71.1343724 47.4638936,66.6362838 47.1281168,63.1301111 L47.128186,63.1298182 Z M44.1586605,50.4922727 C44.3112781,51.3231457 44.4595312,52.1104977 44.5118623,52.9196659 C44.5729094,53.8071005 44.4072112,54.7249818 44.2371572,55.6950705 C43.9886065,57.0654 43.7357023,58.4878477 44.0758214,60.0190977 C44.1804726,60.4758668 44.3112893,60.9282816 44.4464595,61.3807409 C44.6513972,62.0637118 44.8432633,62.7075273 44.9043126,63.3469773 C45.2749507,67.2360182 44.6950102,69.9852523 43.3433079,70.7031023 L43.3389477,70.7031023 C43.13401,70.8118567 42.8549403,70.8379525 42.41017,70.8640561 C40.8404584,70.8553564 39.5977049,70.8466567 38.2808305,70.1245348 C37.4610575,69.67212 36.7023003,69.0978957 35.9000305,68.4888257 L35.3375263,68.0625145 C33.9770054,67.0489273 32.4770612,66.0570782 30.881117,65.1261895 C30.3796621,64.8303855 30.1136752,64.3083573 29.7211914,63.4817941 C29.4290389,62.859728 29.0932845,62.1550077 28.5438519,61.54596 C28.3476324,61.3284557 28.1426947,61.1196489 27.9377459,60.9064877 C27.4886221,60.4410211 27.0612882,60.0016582 26.7516993,59.5187855 C26.1891952,58.6400595 26.0801905,57.6874105 26.0932733,56.4258832 C26.1019937,55.3818491 25.7531542,54.4813627 25.4392007,53.6853355 C25.2778649,53.2677218 25.1252473,52.8762118 25.0293142,52.4847241 C24.7415263,51.3275445 25.1426835,50.0182423 25.5307691,48.7522605 L25.6005366,48.5217043 C26.0976268,46.8859952 26.1630407,45.389602 26.2240789,43.945327 C26.2851248,42.4793361 26.8868696,41.561477 27.6455487,40.3999543 C28.046717,39.7865857 28.5045589,39.0905407 28.8926556,38.2639998 C29.0714389,37.876833 29.2414928,37.5070723 29.4028287,37.1460202 C29.9784045,35.862777 30.4755059,34.757827 31.3780845,33.613677 L31.5089012,33.4440257 C32.6382407,32.021578 33.8025198,30.5467893 35.1629291,29.4418393 C35.9652547,28.7980239 36.8068733,28.2194007 37.6963245,27.6104643 C38.2108621,27.2580986 38.7253998,26.9057441 39.2268547,26.5446809 C39.7937124,26.1357648 40.0902296,26.057465 40.56985,26.057465 C40.6919487,26.057465 40.8227542,26.0618149 40.9710184,26.0661647 C41.3329384,26.0792154 41.7864268,26.096616 42.3445998,26.0487642 C42.7457682,26.0183129 43.1120417,25.8878103 43.439078,25.7790526 C43.6440156,25.7094503 44.0103003,25.5919951 44.0713496,25.6006926 C44.0887914,25.6093934 44.5117552,25.852998 45.0306575,27.4016653 C45.4056603,28.5153017 45.1483914,29.715913 44.8693217,30.986238 C44.7210687,31.6648658 44.5728156,32.3652539 44.5074017,33.0916789 C44.3504305,34.8273926 44.3504305,36.5761358 44.354784,38.2683062 C44.3591442,40.734788 44.3635055,43.0621767 43.9100138,45.3503653 C43.5524584,47.2079108 43.8576871,48.8783653 44.1585645,50.4922471 L44.1586605,50.4922727 Z" id="Shape" fill="#F26BBE"></path>
                    <path d="M35.9866047,52.6716591 C36.5796279,52.980515 37.4866605,53.3937855 38.4721116,53.4546791 C38.4939137,53.4546791 38.5200759,53.459029 38.5418791,53.459029 C39.1261842,53.459029 39.6189098,53.0066142 39.6537935,52.4149949 C39.6930374,51.8016262 39.222106,51.2752994 38.6072819,51.2360994 C38.0447777,51.2012983 37.4299423,50.9141917 37.0113377,50.6966874 C35.6203423,49.9789153 34.4692353,48.9958305 33.7627423,47.9299692 C32.7729153,46.4379192 32.306333,44.5498601 32.476454,42.7533419 C32.6813916,40.5782987 33.4226791,38.5772055 34.5127702,37.2591055 C35.5592819,35.9932351 37.1028726,35.2798396 38.6508167,35.3668146 C39.2612874,35.4016158 39.7932167,34.9274517 39.8238028,34.314083 C39.8543263,33.7007144 39.3833972,33.1743876 38.768573,33.143874 C36.5273079,33.0394705 34.2860428,34.0356517 32.7903405,35.845333 C31.425466,37.4940717 30.5010753,39.9388376 30.2569451,42.544524 C30.03456,44.8718012 30.6188651,47.2209058 31.9008893,49.161083 C32.8165842,50.5314126 34.2642753,51.7799103 35.986694,52.671599 L35.9866047,52.6716591 Z" id="Shape" fill="#F26BBE"></path>
                    <path d="M41.1326512,47.4642955 C40.5963126,46.968382 39.9902512,46.6508175 39.4582326,46.3680541 C39.0265451,46.1418523 38.6210233,45.9286911 38.3114791,45.6546364 C37.8187423,45.2239709 37.439386,44.6541009 37.2431665,44.0537841 C36.5978233,42.070175 38.1108949,39.8515886 38.5948688,39.220825 C38.965507,38.7292548 38.869574,38.0332432 38.3768484,37.6591727 C37.8841116,37.289412 37.1864484,37.385118 36.8114902,37.876677 C35.9873637,38.9685641 34.1646809,41.8179475 35.1196577,44.7455861 C35.4423293,45.7330698 36.0353526,46.6248475 36.8333693,47.3295566 C37.3435423,47.777617 37.9104,48.0777866 38.4118995,48.3387895 C38.8653879,48.5780432 39.2883572,48.7999018 39.606653,49.095717 C40.2868912,49.7264918 40.7446995,50.6573693 40.9627088,51.858092 C41.1371274,52.8238264 41.3813135,54.1506239 40.9234649,54.9162489 C40.3348063,55.895035 39.02233,55.977678 38.6037254,55.977678 L38.5862835,55.977678 C37.43953,55.9689771 36.235958,55.1772518 35.2156789,54.4028848 C34.2825366,53.6938102 33.3624324,52.9716393 32.4423952,52.2495575 C31.923504,51.8406414 31.4089663,51.4360795 30.885744,51.031462 C29.9133645,50.2745345 29.2506184,49.3174643 29.019437,48.3343461 C28.8755375,47.7340293 28.265078,47.3686118 27.6764417,47.5034732 C27.0747003,47.647032 26.7040621,48.2429945 26.843597,48.8432891 C27.1924342,50.3179664 28.138704,51.7230414 29.5121738,52.7889027 C30.0310649,53.1891214 30.5412491,53.5936832 31.0557645,53.9982005 C31.9845421,54.7290243 32.917718,55.4641914 33.8638761,56.1775868 C35.1807505,57.173768 36.7679877,58.1960527 38.5732342,58.2047391 L38.6124781,58.2047391 C40.4525526,58.2047391 42.0310828,57.404313 42.8378177,56.0644414 C43.7317116,54.5767345 43.3872391,52.7018164 43.1604893,51.4576618 C42.855254,49.7741777 42.1706623,48.4343618 41.13288,47.4642732 L41.1326512,47.4642955 Z" id="Shape" fill="#F26BBE"></path>
                    <path d="M37.1821395,59.5884545 L36.9117879,59.536254 C34.2388577,59.0055394 31.7446437,57.8135699 29.5033786,55.9908812 C29.0237247,55.5993712 28.3216856,55.677671 27.933667,56.1518351 C27.5455814,56.6303535 27.6153488,57.3307305 28.0950028,57.7178305 C30.6240447,59.7711533 33.4409749,61.1196555 36.4801563,61.7200169 L36.7548614,61.7765685 C38.1719777,62.0549776 39.6414474,62.3420842 40.6705451,63.1642708 C41.1414809,63.5427289 41.2112484,64.1560976 41.1894363,64.6085458 C41.1371096,65.6177787 40.5484465,66.761873 39.8464409,67.2142321 C39.3275498,67.5491917 39.1792856,68.2365169 39.5106865,68.7541685 C39.7243535,69.0847848 40.0862623,69.2631337 40.452547,69.2631337 C40.6618493,69.2631337 40.866787,69.2065821 41.0542884,69.0847737 C42.3581023,68.2451921 43.330493,66.4529169 43.4176744,64.7215464 C43.4874419,63.3512169 43.0077879,62.1811192 42.0659721,61.4285237 C40.6052093,60.2583146 38.7825488,59.9016169 37.1822512,59.5884623 L37.1821395,59.5884545 Z" id="Shape" fill="#F26BBE"></path>
                    <path d="M38.4859535,64.3080455 C37.7185116,64.1253423 35.4859535,63.5076193 34.3435535,62.8333682 C33.815933,62.5158036 33.1270326,62.6941636 32.8130233,63.220535 C32.4990698,63.7512495 32.6734884,64.4341759 33.2011088,64.7474418 C34.8668205,65.7392686 37.8405879,66.4439555 37.9670623,66.4744691 C38.0542716,66.4962206 38.1414809,66.5049204 38.2243312,66.5049204 C38.7301395,66.5049204 39.1879926,66.1612633 39.3100912,65.6479438 C39.4583442,65.0519701 39.087706,64.4516756 38.4859647,64.3081279 L38.4859535,64.3080455 Z" id="Shape" fill="#F26BBE"></path>
                    <path d="M42.6753488,28.5848182 C41.1535256,27.4972855 38.240707,28.2933573 36.7538233,29.7027977 C36.309053,30.1247657 36.2872521,30.8338068 36.7145793,31.2775909 C37.1375487,31.7213082 37.8482724,31.7430575 38.2931096,31.3167419 C39.3309031,30.3336126 41.1142817,30.1291601 41.3846445,30.3945174 C41.3846445,30.3988672 41.4936558,30.6772808 41.1273756,31.4777069 C40.3206854,33.2221069 40.442784,34.9578205 40.5561533,36.6369615 C40.5823167,37.037169 40.6128391,37.4373876 40.6259207,37.8375728 C40.6869678,39.6428887 40.5474329,40.817441 39.6491766,41.0915069 C39.060518,41.2698669 38.729117,41.891933 38.9079003,42.4792092 C39.0561533,42.9577276 39.4965589,43.2665835 39.9762128,43.2665835 C40.0852242,43.2665835 40.1942333,43.249184 40.3032491,43.2187328 C43.0198259,42.392203 42.9107654,39.2644328 42.8585235,37.7593532 C42.8454419,37.3330421 42.8149194,36.906731 42.7843959,36.4804532 C42.6841049,35.0188055 42.5881764,33.6354464 43.155034,32.4043214 C44.240794,30.0421873 43.1811974,28.9459237 42.6753801,28.5848828 L42.6753488,28.5848182 Z" id="Shape" fill="#F26BBE"></path>
                    <path d="M68.2716279,64.4216364 C68.5201786,63.8909218 68.7556353,63.3906541 69.0870363,63.0295909 C69.2658195,62.8294816 69.4533098,62.6380809 69.6408112,62.4466691 C70.1466195,61.9202977 70.67424,61.3808857 71.1059274,60.7109555 C72.0172688,59.2928509 72.1306381,57.7963464 72.1175553,56.3956145 C72.113194,55.7778916 72.344294,55.1731759 72.6190102,54.4771532 C72.7977935,54.0160409 72.9852837,53.5375225 73.1161005,53.0111623 C73.5521414,51.2580759 73.0376127,49.578935 72.5841265,48.09546 L72.5143591,47.8562064 C72.1262735,46.5859927 72.0521526,45.38527 71.9867386,43.8323041 C71.8995293,41.7529223 71.03616,40.4348223 70.2032595,39.1646086 C69.8239033,38.5860411 69.431453,37.98137 69.1087814,37.2983768 C68.9299981,36.9199186 68.7686623,36.5588555 68.6116912,36.2064898 C68.0012205,34.8491898 67.4299981,33.5702898 66.3573656,32.2131011 L66.2178307,32.0390955 C65.0187237,30.520875 63.7759702,28.9505364 62.2236726,27.6976955 C61.3559442,26.9973184 60.43584,26.3709091 59.5507423,25.7662045 C59.0536521,25.4225475 58.5521972,25.0832336 58.0638586,24.730868 C56.7295702,23.769488 55.809533,23.7955916 54.9243237,23.8347359 C54.6103702,23.8434356 54.2571684,23.8608362 53.8167628,23.8216852 C53.6946642,23.8086345 53.4635609,23.7346824 53.2629879,23.6607313 C52.6568819,23.4519245 51.7411647,23.1430686 50.8428949,23.6302801 C50.0231219,24.0739973 49.3821321,25.0440414 48.8326995,26.6840937 C48.2658419,28.3762642 48.6146791,30.0076301 48.9286292,31.4431073 C49.0681641,32.0825796 49.1946162,32.6872619 49.2513008,33.2788255 C49.3995539,34.9100801 49.3995539,36.6067051 49.3952004,38.246646 C49.3908402,40.7131278 49.38648,43.2623528 49.8835725,45.7636914 C50.1713604,47.2123096 49.914096,48.6043551 49.6437511,50.0746892 C49.4867799,50.9316658 49.3254329,51.8190892 49.2556655,52.754321 C49.1771777,53.9201869 49.3733994,55.0163392 49.5609008,56.0778573 C49.7789213,57.2871551 49.9838701,58.4269619 49.7396841,59.518771 C49.6481135,59.9233328 49.5260171,60.3278946 49.4082832,60.7280687 C49.1815446,61.4849962 48.9504301,62.2680051 48.8675799,63.1162619 C48.5318255,66.6224346 48.7324097,71.1205233 51.5972171,72.6474301 C52.1291911,72.9345367 52.7745567,73.0737412 53.5594125,73.0737412 L53.5942962,73.0737412 C55.3297753,73.0606905 56.9692543,73.0519897 58.7832078,72.0558108 C59.7512339,71.5250962 60.6102218,70.8725721 61.4430776,70.2374653 L61.9881343,69.824206 C63.2832413,68.8584717 64.7090646,67.9145423 66.2308878,67.0270855 C67.3471669,66.3789158 67.835539,65.3392583 68.2715576,64.4213992 L68.2716279,64.4216364 Z M65.0928,65.1176591 C63.4968558,66.0485923 62.0012651,67.0404636 60.6407442,68.0539841 L60.07824,68.475952 C59.2759144,69.0849775 58.5172353,69.6591907 57.6930865,70.1116611 C56.3718586,70.8337875 55.1334586,70.842485 53.5681005,70.8511825 C53.136413,70.8642321 52.8442605,70.7989808 52.6349581,70.6902286 L52.630598,70.6902286 C51.2832491,69.9724566 50.698877,67.2231445 51.0739468,63.3341036 C51.1349939,62.6989857 51.326851,62.0508605 51.5317998,61.3678673 C51.66697,60.9198068 51.7977868,60.467392 51.902438,60.0105673 C52.2469105,58.4793173 51.9896473,57.0612127 51.7454668,55.68654 C51.5710482,54.7164625 51.4053477,53.8029355 51.4707617,52.9111355 C51.5274474,52.0976575 51.6713459,51.3102832 51.8239635,50.4793991 C52.1204696,48.8655173 52.4257049,47.1994059 52.0594314,45.3331741 C51.6059431,43.0449855 51.6103077,40.7177082 51.6146612,38.251115 C51.6190225,36.5589445 51.6190225,34.8102014 51.4620435,33.0788309 C51.3966374,32.3523614 51.2440231,31.65204 51.1001235,30.97339 C50.8254184,29.7031764 50.5681496,28.5024536 50.9387877,27.3888173 C51.4620435,25.8358514 51.8806482,25.5965309 51.87193,25.5965309 C51.8806504,25.5965309 51.8893719,25.592181 51.8980934,25.592181 C52.0289101,25.592181 52.338499,25.7009343 52.530365,25.7618324 C52.8530367,25.8749333 53.2236748,26.001086 53.6248432,26.031544 C54.1829827,26.0793958 54.6364711,26.0619953 54.9984246,26.0489446 C55.7571483,26.0228443 56.036218,26.0141434 56.7469641,26.527463 C57.2527725,26.8928805 57.7673101,27.245235 58.2818478,27.5976007 C59.1713771,28.2066262 60.0129734,28.7808393 60.8108897,29.4246325 C62.1714106,30.5252171 63.335578,31.9955734 64.4605641,33.4180212 L64.600099,33.5920268 C65.5027111,34.7317223 65.9954478,35.8366723 66.5710013,37.1156837 C66.7323371,37.48109 66.9024022,37.855205 67.085539,38.2423496 C67.4736246,39.064525 67.9314664,39.7649132 68.332646,40.3783041 C69.0913697,41.5354837 69.6931669,42.4533428 69.7541157,43.9193337 C69.8108015,45.2983496 69.8762143,46.8600018 70.377658,48.4957109 L70.4517857,48.7349646 C70.8398713,50.000835 71.2410285,51.3059055 70.9532406,52.4587418 C70.8529496,52.8502518 70.7003364,53.2417618 70.5390006,53.6593532 C70.2294117,54.455425 69.8762099,55.3558668 69.884928,56.4042441 C69.8980097,57.6614282 69.7889972,58.6184873 69.226502,59.4971464 C68.9169131,59.980008 68.4895792,60.4193709 68.0404554,60.8805055 C67.8355178,61.0893123 67.6305689,61.3024734 67.4343494,61.5199778 C66.884928,62.1289921 66.5491736,62.8337346 66.2570099,63.4558118 C65.8602061,64.2997366 65.5942192,64.8217982 65.0927308,65.11758 L65.0928,65.1176591 Z" id="Shape" fill="#F26BBE"></path>
                    <path d="M56.1499535,34.3100227 C56.180477,34.9233914 56.7037284,35.3975555 57.3229395,35.3627543 C58.8752372,35.2844523 60.4144744,35.9891748 61.460986,37.2550452 C62.546746,38.568802 63.288,40.5742384 63.4973023,42.7492816 C63.6673563,44.5459111 63.1964316,46.438202 62.211014,47.930252 C61.5046214,48.9960355 60.353414,49.9791202 58.9624186,50.6969702 C58.5481786,50.9101314 57.9289898,51.2015811 57.3664744,51.2363823 C56.7516502,51.2755344 56.2807144,51.801898 56.3199628,52.4152777 C56.3548465,53.006897 56.8475833,53.4593118 57.4318772,53.4593118 C57.4536793,53.4593118 57.4754813,53.4593118 57.5016447,53.454962 C58.487107,53.3940594 59.3897191,52.9764435 59.9871516,52.671942 C61.7139237,51.7801642 63.161626,50.5316442 64.0729563,49.1526283 C65.3548912,47.2167942 65.9392633,44.8676897 65.7169005,42.5360692 C65.4683498,39.9259283 64.5439144,37.4855056 63.1835051,35.8368783 C61.6879144,34.0272192 59.4421842,33.0310715 57.2052726,33.1354192 C56.5860837,33.1702204 56.1151591,33.6922374 56.1500428,34.3099715 L56.1499535,34.3100227 Z" id="Shape" fill="#F26BBE"></path>
                    <path d="M57.3666977,58.2053182 L57.4059416,58.2053182 C59.2111881,58.1922675 60.7984253,57.1743359 62.1152997,56.1781659 C63.070243,55.4560395 64.0120811,54.712175 64.9539974,53.9726091 L66.4627602,52.7893705 C67.8363416,51.7192327 68.7824997,50.3228886 69.1356904,48.8437568 C69.27959,48.2477832 68.9045872,47.6474886 68.3071993,47.5039409 C67.7098113,47.3690907 67.1080923,47.7301427 66.9642039,48.3304707 C66.7331007,49.3136 66.0659453,50.270648 65.0935434,51.0319298 L63.5760737,52.2238548 C62.647296,52.9546786 61.7141202,53.6898457 60.767962,54.4075843 C59.747616,55.1819068 58.5484644,55.9735798 57.3973574,55.9780343 C56.996189,55.9562839 55.6575248,55.908432 55.0600923,54.9209484 C54.5978858,54.1553234 54.8420718,52.828537 55.0208473,51.8627916 C55.2432324,50.6621802 55.6967207,49.7311802 56.3769031,49.1004166 C56.6952212,48.8046125 57.122544,48.5827539 57.5716566,48.3434891 C58.0731114,48.0781318 58.6443338,47.7779734 59.1545403,47.3342561 C59.9525012,46.6295359 60.5455356,45.737747 60.8682519,44.7502857 C61.8231952,41.8269902 60.004877,38.973297 59.1764193,37.8813766 C58.8014166,37.3898064 58.1037421,37.2941116 57.6110612,37.6638723 C57.1183245,38.033633 57.0224026,38.73401 57.3930407,39.2255245 C57.8726947,39.8562993 59.3901756,42.0792177 58.7403896,44.0584836 C58.54417,44.6588005 58.1648138,45.2286927 57.672077,45.6593359 C57.3624882,45.9290475 56.9569663,46.1465518 56.5253235,46.3727536 C55.9889849,46.655517 55.3829235,46.9730705 54.8465514,47.468995 C53.808758,48.4347293 53.1241328,49.7788995 52.8145887,51.4623836 C52.58785,52.702195 52.2433663,54.5814564 53.1372603,56.0691632 C53.948304,57.4089791 55.5267673,58.2051177 57.3669533,58.2051177 L57.3666977,58.2053182 Z" id="Shape" fill="#F26BBE"></path>
                    <path d="M68.0450233,56.1517727 C67.6569377,55.6776086 66.9549098,55.603652 66.4753116,55.9908189 C64.2340465,57.8135075 61.744186,59.0054325 59.0669023,59.5361916 L58.7965507,59.5883922 C57.1918995,59.9016024 55.3735926,60.2626656 53.9171833,61.4241104 C52.9753228,62.1766835 52.4957135,63.3469149 52.5654809,64.7171331 C52.6526902,66.4485035 53.6294288,68.2407899 54.9332205,69.0803604 C55.1207219,69.1978156 55.3300242,69.2587204 55.5349619,69.2587204 C55.9012353,69.2587204 56.2588019,69.0803604 56.4768223,68.7497551 C56.8125767,68.2320924 56.6599591,67.5448006 56.1410679,67.2098188 C55.4390288,66.757404 54.8459609,65.6133097 54.7937191,64.6041324 C54.7719159,64.1517176 54.8416833,63.538349 55.3126102,63.1598574 C56.3416856,62.337682 57.8111777,62.0505754 59.228294,61.7721551 L59.4986456,61.7156036 C62.5379386,61.1152868 65.3547572,59.7710831 67.8837991,57.7134172 C68.363453,57.3262504 68.437574,56.6258845 68.0451349,56.1517649 L68.0450233,56.1517727 Z" id="Shape" fill="#F26BBE"></path>
                    <path d="M61.6353488,62.8380455 C60.4973023,63.5123189 58.2603907,64.1300864 57.4929488,64.3127227 C56.8955609,64.4562816 56.5205693,65.0522441 56.6644577,65.6525386 C56.7865563,66.1658582 57.2443981,66.5095152 57.7502177,66.5095152 C57.8330668,66.5095152 57.9202716,66.5008155 58.0074865,66.479064 C58.1339386,66.4486138 61.1077284,65.7395426 62.77344,64.7520367 C63.305414,64.4388265 63.4798326,63.7558555 63.1615256,63.2251299 C62.8475721,62.6987585 62.1629805,62.5204096 61.6353488,62.837963 L61.6353488,62.8380455 Z" id="Shape" fill="#F26BBE"></path>
                    <path d="M53.1973953,36.4849545 C53.1668718,36.9112657 53.1363483,37.3375768 53.1232677,37.7638545 C53.0709421,39.2690455 52.9662966,42.3968045 55.6785421,43.2188909 C55.7875535,43.253692 55.8965626,43.2667416 56.0055784,43.2667416 C56.4852324,43.2667416 56.925638,42.9578857 57.073891,42.4793673 C57.2526742,41.8921023 56.9212733,41.2657264 56.3326147,41.091665 C55.4343561,40.8176103 55.2948212,39.6430469 55.3515059,37.837731 C55.3645864,37.4375235 55.39511,37.0329505 55.4212733,36.6371196 C55.5390073,34.9579787 55.6567412,33.2266082 54.850051,31.477865 C54.4837775,30.6774389 54.5884175,30.3990298 54.584064,30.3990298 C54.8587691,30.124975 56.6422593,30.3294275 57.6799524,31.3125569 C58.1247226,31.738868 58.8310593,31.7171187 59.2584826,31.2734047 C59.6858054,30.8296875 59.6640045,30.1250229 59.2192376,29.6986116 C57.7323539,28.2848502 54.8195353,27.4930547 53.2933585,28.580632 C52.787539,28.9416952 51.7280004,30.0379366 52.8180692,32.408757 C53.393645,33.639882 53.2977232,35.0232411 53.1974255,36.4848888 L53.1973953,36.4849545 Z" id="Shape" fill="#F26BBE"></path>
                    <path d="M47.9866047,15.0563636 C48.6057935,15.0563636 49.1028837,14.5604502 49.1028837,13.9427273 L49.1028837,1.25284091 C49.1028837,0.635117955 48.6057935,0.139204545 47.9866047,0.139204545 C47.3674158,0.139204545 46.8703256,0.635117955 46.8703256,1.25284091 L46.8703256,13.9427273 C46.8703256,14.5560959 47.3717805,15.0563636 47.9866047,15.0563636 Z" id="Shape" fill="#E3EDFB"></path>
                    <path d="M30.487814,19.5409773 C30.6971163,19.5409773 30.9064186,19.4844257 31.09392,19.3626173 C31.6128112,19.0276577 31.7610753,18.3403325 31.4253209,17.8226809 L20.8773767,1.57918091 C20.5416223,1.06151818 19.852666,0.913605 19.333786,1.24856455 C18.8148949,1.58352409 18.6666307,2.27084932 19.0023963,2.78850091 L29.5503405,19.0320009 C29.7640074,19.3626173 30.1215628,19.5409661 30.4878363,19.5409661 L30.487814,19.5409773 Z" id="Shape" fill="#E3EDFB"></path>
                    <path d="M18.1350698,30.0770909 L7.12052093,23.7345977 C6.58854698,23.4257418 5.904,23.608445 5.59434419,24.1435139 C5.28475535,24.6742284 5.46789209,25.3571548 6.0042307,25.6660775 L17.0187795,32.0085707 C17.1931981,32.1086231 17.385053,32.1564727 17.5769191,32.1564727 C17.9650047,32.1564727 18.3399963,31.9563634 18.5449451,31.5996545 C18.8501805,31.0645857 18.6670437,30.3860136 18.1350586,30.0770909 L18.1350698,30.0770909 Z" id="Shape" fill="#E3EDFB"></path>
                    <path d="M4.76204651,49.5568182 L4.7664067,49.5568182 L12.7242486,49.522017 C13.3390727,49.5176672 13.836163,49.0174061 13.836163,48.4040375 C13.8318028,47.7906689 13.3347081,47.2947555 12.7198839,47.2947555 L12.7155237,47.2947555 L4.75768186,47.3295566 C4.14285767,47.3339065 3.64576744,47.8341675 3.64576744,48.4475361 C3.65012763,49.0652591 4.14722233,49.5568182 4.76204651,49.5568182 Z" id="Shape" fill="#E3EDFB"></path>
                    <path d="M16.6615814,64.9038409 L0.676465116,74.0609386 C0.140126512,74.3654514 -0.0430102326,75.0484223 0.266578605,75.5791591 C0.471516279,75.935868 0.84651907,76.1403316 1.23460465,76.1403316 C1.42210605,76.1403316 1.61396093,76.0924798 1.78837953,75.9924295 L17.7734958,66.8353318 C18.3098344,66.5308191 18.4929712,65.8478482 18.1833823,65.3171114 C17.878147,64.7820425 17.1935553,64.5993393 16.6615591,64.903852 L16.6615814,64.9038409 Z" id="Shape" fill="#E3EDFB"></path>
                    <path d="M30.4186047,77.7852727 C29.882266,77.48076 29.2020837,77.6634632 28.8924279,78.1941889 L23.4985674,87.5426093 C23.1933321,88.0776782 23.3764688,88.7562502 23.908454,89.065173 C24.0828726,89.1652265 24.2747274,89.213075 24.4622288,89.213075 C24.8503144,89.213075 25.225306,89.0129657 25.4302549,88.6562568 L30.8241153,79.3078364 C31.1380688,78.7727675 30.9505674,78.0897409 30.4185935,77.7852727 L30.4186047,77.7852727 Z" id="Shape" fill="#E3EDFB"></path>
                    <path d="M47.2677209,82.4781364 C46.6485321,82.4781364 46.1514419,82.9740498 46.1514419,83.5917727 L46.1514419,96.2816591 C46.1514419,96.899382 46.6485321,97.3952955 47.2677209,97.3952955 C47.8869098,97.3952955 48.384,96.899382 48.384,96.2816591 L48.384,83.5917727 C48.384,82.9784041 47.8825451,82.4781364 47.2677209,82.4781364 Z" id="Shape" fill="#E3EDFB"></path>
                    <path d="M65.7387907,78.5503409 C65.4292019,78.015272 64.7446102,77.8369232 64.212614,78.1414248 C63.6762753,78.4502807 63.4931386,79.1332516 63.8027274,79.6639884 L71.6515088,93.2147157 C71.8608112,93.5714245 72.2314493,93.7715339 72.6195349,93.7715339 C72.8113898,93.7715339 73.0032558,93.723682 73.1776744,93.6236318 C73.714013,93.3147759 73.8971498,92.631805 73.5875609,92.1010682 L65.7387907,78.5503409 Z" id="Shape" fill="#E3EDFB"></path>
                    <path d="M89.2498605,71.8729773 L78.2353116,65.5304841 C77.698973,65.2216282 77.0187907,65.4043314 76.7091349,65.9394002 C76.399546,66.4744691 76.5826828,67.1530411 77.1190214,67.4619639 L88.1335702,73.804457 C88.3079888,73.9045095 88.4998437,73.9523591 88.6917098,73.9523591 C89.0797953,73.9523591 89.454787,73.7522498 89.6597358,73.3955409 C89.9693247,72.860472 89.7861879,72.1819 89.2498493,71.8729773 L89.2498605,71.8729773 Z" id="Shape" fill="#E3EDFB"></path>
                    <path d="M90.4922791,47.9776818 L90.4879189,47.9776818 L82.530077,48.012483 C81.9152528,48.0168339 81.4181626,48.5170939 81.4181626,49.1304625 C81.4225228,49.7438311 81.9196175,50.2397445 82.5344417,50.2397445 L82.5388019,50.2397445 L90.4966437,50.2049434 C91.1114679,50.2005935 91.6085581,49.7003325 91.6085581,49.0869639 C91.604198,48.4735952 91.1071033,47.9776818 90.4922791,47.9776818 Z" id="Shape" fill="#E3EDFB"></path>
                    <path d="M93.4705116,21.5421818 L77.4853953,30.6992795 C76.9490567,31.0037923 76.76592,31.6867632 77.0755088,32.2175 C77.2804465,32.5742089 77.6554493,32.7786725 78.0435349,32.7786725 C78.2310363,32.7786725 78.4228912,32.7308207 78.5973098,32.6307705 L94.582426,23.4736727 C95.1187647,23.16916 95.3019014,22.4861891 94.9923126,21.9554523 C94.6870772,21.4203834 94.0068502,21.2376802 93.4704893,21.542193 L93.4705116,21.5421818 Z" id="Shape" fill="#E3EDFB"></path>
                    <path d="M64.840186,19.7492273 C65.0146047,19.8492808 65.2064595,19.8971293 65.3939609,19.8971293 C65.7820465,19.8971293 66.1570381,19.69702 66.361987,19.3403111 L71.7558474,9.99189068 C72.0610828,9.45682182 71.877946,8.77824977 71.3459609,8.46932705 C70.8096223,8.16481432 70.12944,8.3475175 69.8241377,8.87824318 L64.4302772,18.2266636 C64.1206884,18.7660757 64.3038251,19.4447591 64.8401637,19.7492273 L64.840186,19.7492273 Z" id="Shape" fill="#E3EDFB"></path>
                </g>
            </g>
        </g>
    </g>
</svg>