<svg xmlns="http://www.w3.org/2000/svg" width="32" height="34" viewBox="0 0 32 34">
    <g fill="none" fill-rule="evenodd">
        <path fill="#FF54AA" d="M5.703 18.986a2.275 2.275 0 0 1-2.268-2.277 2.275 2.275 0 0 1 2.268-2.277 2.276 2.276 0 0 1 2.27 2.277 2.276 2.276 0 0 1-2.27 2.277"/>
        <path fill="#F5A623" d="M25.953 7.205a2.275 2.275 0 0 1-2.268-2.277 2.275 2.275 0 0 1 2.268-2.277 2.275 2.275 0 0 1 2.269 2.277 2.275 2.275 0 0 1-2.269 2.277M25.953 31.062a2.275 2.275 0 0 1-2.268-2.277 2.275 2.275 0 0 1 2.268-2.277 2.275 2.275 0 0 1 2.269 2.277 2.275 2.275 0 0 1-2.269 2.277"/>
        <path fill="#242D3C" d="M9.685 15.143l-.674-1.172 8.278-4.796a.674.674 0 0 1 .922.247.678.678 0 0 1-.248.925l-8.278 4.796z"/>
        <path fill="#242D3C" d="M5.6 13.187a3.763 3.763 0 0 0-3.751 3.766A3.763 3.763 0 0 0 5.6 20.719c2.07 0 3.753-1.69 3.753-3.766A3.763 3.763 0 0 0 5.6 13.187m0 8.886C2.788 22.073.5 19.776.5 16.953s2.288-5.12 5.1-5.12c2.814 0 5.102 2.297 5.102 5.12s-2.288 5.12-5.101 5.12M25.964 1.388a3.763 3.763 0 0 0-3.752 3.767 3.763 3.763 0 0 0 3.752 3.765c2.07 0 3.753-1.689 3.753-3.765a3.764 3.764 0 0 0-3.753-3.767m0 8.886c-2.813 0-5.101-2.297-5.101-5.12s2.288-5.12 5.1-5.12c2.814 0 5.102 2.297 5.102 5.12s-2.288 5.12-5.101 5.12M25.964 24.986a3.763 3.763 0 0 0-3.752 3.765 3.763 3.763 0 0 0 3.752 3.766c2.07 0 3.753-1.689 3.753-3.766a3.763 3.763 0 0 0-3.753-3.765m0 8.885c-2.813 0-5.101-2.297-5.101-5.12 0-2.822 2.288-5.119 5.1-5.119 2.814 0 5.102 2.297 5.102 5.12 0 2.822-2.288 5.119-5.101 5.119"/>
        <path fill="#242D3C" d="M21.97 27.009l-9.44-5.47a.678.678 0 0 1-.247-.925.674.674 0 0 1 .922-.247l9.44 5.47-.675 1.172z"/>
    </g>
</svg>
